370
369
375
376
377
-565
-575
378
567
-549
598
362
363
361
18
570
365
624
391
364
360
628
-505
393
-503
390
233
553
392
-69
-180
558
-551
188
469
576
468
568
74
80
599
186
371
573
566
-178
13
94
-314
554
577
388
559
490
-590
590
-579
579
575
565
-556,-557
556,557
549
-536
536
-300
300
-224
224
180
69
70
181
466
464
574
184
433
491
492
217
