{
    "HE": {
        "He": 1.0
    },
    "AR": {
        "Ar": 1.0
    },
    "N2": {
        "N": 2.0
    },
    "H": {
        "H": 1.0
    },
    "H2": {
        "H": 2.0
    },
    "HEG": {
        "H": 1.0
    },
    "HCFG": {
        "H": 1.0
    },
    "Halt": {
        "H": 1.0
    },
    "O": {
        "O": 1.0
    },
    "O2": {
        "O": 2.0
    },
    "OH": {
        "H": 1.0,
        "O": 1.0
    },
    "H2O": {
        "H": 2.0,
        "O": 1.0
    },
    "HO2": {
        "H": 1.0,
        "O": 2.0
    },
    "H2O2": {
        "H": 2.0,
        "O": 2.0
    },
    "CO": {
        "C": 1.0,
        "O": 1.0
    },
    "CO2": {
        "C": 1.0,
        "O": 2.0
    },
    "HCO": {
        "C": 1.0,
        "H": 1.0,
        "O": 1.0
    },
    "CH2O": {
        "C": 1.0,
        "H": 2.0,
        "O": 1.0
    },
    "formyloxy": {
        "C": 1.0,
        "H": 1.0,
        "O": 2.0
    },
    "formylperoxy": {
        "C": 1.0,
        "H": 1.0,
        "O": 3.0
    },
    "formylooh": {
        "C": 1.0,
        "H": 2.0,
        "O": 3.0
    },
    "C": {
        "C": 1.0
    },
    "CH": {
        "C": 1.0,
        "H": 1.0
    },
    "CH2(S)": {
        "C": 1.0,
        "H": 2.0
    },
    "CH2": {
        "C": 1.0,
        "H": 2.0
    },
    "CH3": {
        "C": 1.0,
        "H": 3.0
    },
    "CH4": {
        "C": 1.0,
        "H": 4.0
    },
    "CH3OO": {
        "C": 1.0,
        "H": 3.0,
        "O": 2.0
    },
    "CH3OOH": {
        "C": 1.0,
        "H": 4.0,
        "O": 2.0
    },
    "CH2OH": {
        "C": 1.0,
        "H": 3.0,
        "O": 1.0
    },
    "CH3O": {
        "C": 1.0,
        "H": 3.0,
        "O": 1.0
    },
    "CH3OH": {
        "C": 1.0,
        "H": 4.0,
        "O": 1.0
    },
    "OCH2OOH": {
        "C": 1.0,
        "H": 3.0,
        "O": 3.0
    },
    "HOCH2OO": {
        "C": 1.0,
        "H": 3.0,
        "O": 3.0
    },
    "HOCH2OOH": {
        "C": 1.0,
        "H": 4.0,
        "O": 3.0
    },
    "HOCH2O": {
        "C": 1.0,
        "H": 3.0,
        "O": 2.0
    },
    "C2H2": {
        "C": 2.0,
        "H": 2.0
    },
    "C2H3": {
        "C": 2.0,
        "H": 3.0
    },
    "C2H4": {
        "C": 2.0,
        "H": 4.0
    },
    "C2H5": {
        "C": 2.0,
        "H": 5.0
    },
    "C2H6": {
        "C": 2.0,
        "H": 6.0
    },
    "ketene": {
        "C": 2.0,
        "H": 2.0,
        "O": 1.0
    },
    "HCCO": {
        "C": 2.0,
        "H": 1.0,
        "O": 1.0
    },
    "ethynol": {
        "C": 2.0,
        "H": 2.0,
        "O": 1.0
    },
    "acetaldehyde": {
        "C": 2.0,
        "H": 4.0,
        "O": 1.0
    },
    "acetyl": {
        "C": 2.0,
        "H": 3.0,
        "O": 1.0
    },
    "vinoxy": {
        "C": 2.0,
        "H": 3.0,
        "O": 1.0
    },
    "acetylperoxy": {
        "C": 2.0,
        "H": 3.0,
        "O": 3.0
    },
    "acetyloxy": {
        "C": 2.0,
        "H": 3.0,
        "O": 2.0
    },
    "ethoxy": {
        "C": 2.0,
        "H": 5.0,
        "O": 1.0
    },
    "CH3CH2OO": {
        "C": 2.0,
        "H": 5.0,
        "O": 2.0
    },
    "CH3CH2OOH": {
        "C": 2.0,
        "H": 6.0,
        "O": 2.0
    },
    "CH2CH2OOH": {
        "C": 2.0,
        "H": 5.0,
        "O": 2.0
    },
    "ethanol": {
        "C": 2.0,
        "H": 6.0,
        "O": 1.0
    },
    "CH2CH2OH": {
        "C": 2.0,
        "H": 5.0,
        "O": 1.0
    },
    "CH3CHOH": {
        "C": 2.0,
        "H": 5.0,
        "O": 1.0
    },
    "oxirane": {
        "C": 2.0,
        "H": 4.0,
        "O": 1.0
    },
    "oxiranyl": {
        "C": 2.0,
        "H": 3.0,
        "O": 1.0
    },
    "ethenol": {
        "C": 2.0,
        "H": 4.0,
        "O": 1.0
    },
    "C3H6": {
        "C": 3.0,
        "H": 6.0
    },
    "npropyl": {
        "C": 3.0,
        "H": 7.0
    },
    "ipropyl": {
        "C": 3.0,
        "H": 7.0
    },
    "C3H8": {
        "C": 3.0,
        "H": 8.0
    },
    "allyl": {
        "C": 3.0,
        "H": 5.0
    },
    "propen1yl": {
        "C": 3.0,
        "H": 5.0
    },
    "propen2yl": {
        "C": 3.0,
        "H": 5.0
    },
    "acetone": {
        "C": 3.0,
        "H": 6.0,
        "O": 1.0
    },
    "CH3OCH3": {
        "C": 2.0,
        "H": 6.0,
        "O": 1.0
    },
    "CH3OCH2": {
        "C": 2.0,
        "H": 5.0,
        "O": 1.0
    },
    "acrolein": {
        "C": 3.0,
        "H": 4.0,
        "O": 1.0
    },
    "CH2CHCO": {
        "C": 3.0,
        "H": 3.0,
        "O": 1.0
    },
    "CH3CHCO": {
        "C": 3.0,
        "H": 4.0,
        "O": 1.0
    },
    "allyloxy": {
        "C": 3.0,
        "H": 5.0,
        "O": 1.0
    },
    "allyl-alcohol": {
        "C": 3.0,
        "H": 6.0,
        "O": 1.0
    },
    "propanal": {
        "C": 3.0,
        "H": 6.0,
        "O": 1.0
    },
    "propionyl": {
        "C": 3.0,
        "H": 5.0,
        "O": 1.0
    },
    "npropyloxy": {
        "C": 3.0,
        "H": 7.0,
        "O": 1.0
    },
    "ipropyloxy": {
        "C": 3.0,
        "H": 7.0,
        "O": 1.0
    },
    "npropyloo": {
        "C": 3.0,
        "H": 7.0,
        "O": 2.0
    },
    "npropylooh": {
        "C": 3.0,
        "H": 8.0,
        "O": 2.0
    },
    "ipropyloo": {
        "C": 3.0,
        "H": 7.0,
        "O": 2.0
    },
    "ipropylooh": {
        "C": 3.0,
        "H": 8.0,
        "O": 2.0
    },
    "propen1ol": {
        "C": 3.0,
        "H": 6.0,
        "O": 1.0
    },
    "propen2ol": {
        "C": 3.0,
        "H": 6.0,
        "O": 1.0
    },
    "CH3CO3H": {
        "C": 2.0,
        "H": 4.0,
        "O": 3.0
    },
    "O2C2H4OH": {
        "C": 2.0,
        "H": 5.0,
        "O": 3.0
    },
    "propoxide": {
        "C": 3.0,
        "H": 6.0,
        "O": 1.0
    },
    "QOOH_1": {
        "C": 3.0,
        "H": 7.0,
        "O": 2.0
    },
    "QOOH_2": {
        "C": 3.0,
        "H": 7.0,
        "O": 2.0
    },
    "QOOH_3": {
        "C": 3.0,
        "H": 7.0,
        "O": 2.0
    },
    "well_1": {
        "C": 3.0,
        "H": 7.0,
        "O": 4.0
    },
    "well_2": {
        "C": 3.0,
        "H": 7.0,
        "O": 4.0
    },
    "well_3": {
        "C": 3.0,
        "H": 7.0,
        "O": 4.0
    },
    "well_5": {
        "C": 3.0,
        "H": 7.0,
        "O": 4.0
    },
    "prod_1": {
        "C": 3.0,
        "H": 6.0,
        "O": 3.0
    },
    "prod_2": {
        "C": 3.0,
        "H": 6.0,
        "O": 2.0
    },
    "prod_3": {
        "C": 3.0,
        "H": 6.0,
        "O": 3.0
    },
    "prod_4": {
        "C": 3.0,
        "H": 6.0,
        "O": 3.0
    },
    "prod_5": {
        "C": 3.0,
        "H": 6.0,
        "O": 3.0
    },
    "prod_6": {
        "C": 3.0,
        "H": 6.0,
        "O": 2.0
    },
    "prod_7": {
        "C": 3.0,
        "H": 6.0,
        "O": 2.0
    },
    "frag_1": {
        "C": 3.0,
        "H": 5.0,
        "O": 2.0
    },
    "frag_3": {
        "C": 3.0,
        "H": 5.0,
        "O": 2.0
    },
    "frag_4": {
        "C": 3.0,
        "H": 5.0,
        "O": 2.0
    },
    "frag_5": {
        "C": 3.0,
        "H": 5.0,
        "O": 2.0
    },
    "propen1oxy": {
        "C": 3.0,
        "H": 5.0,
        "O": 1.0
    },
    "propen2oxy": {
        "C": 3.0,
        "H": 5.0,
        "O": 1.0
    },
    "glyoxal": {
        "C": 2.0,
        "H": 2.0,
        "O": 2.0
    },
    "vinoxylmethyl": {
        "C": 3.0,
        "H": 5.0,
        "O": 1.0
    },
    "formylethyl": {
        "C": 3.0,
        "H": 5.0,
        "O": 1.0
    },
    "npropanol": {
        "C": 3.0,
        "H": 8.0,
        "O": 1.0
    },
    "ipropanol": {
        "C": 3.0,
        "H": 8.0,
        "O": 1.0
    }
}