[npropyl]-->[prod_1],
[npropyl]-->[prod_1]-->[frag_1],
[npropyl]-->[prod_1]-->[frag_1]-->[vinoxy]-->[CO],
[npropyl]-->[propoxide],
[npropyl]-->[QOOH_2]-->[propoxide],
[npropyl]-->[prod_2]-->[allyloxy],
[npropyl]-->[npropylooh]-->[npropyloxy],
[npropyl]-->[prod_1]-->[frag_1]-->[CH2O]-->[CH3OOH]-->[CH3O],
[npropyl]-->[C3H6]-->[propen1ol],
[npropyl]-->[prod_1]-->[frag_1]-->[CH2O]-->[CH3CH2OOH]-->[ethoxy],
[npropyl]-->[prod_1]-->[frag_1]-->[CH2O]-->[ipropylooh]-->[ipropyloxy],
[npropyl]-->[prod_1]-->[frag_1]-->[CH2O]-->[npropylooh]-->[npropyloxy],
[npropyl]-->[C3H6]-->[propoxide],
[npropyl]-->[C3H6]-->[allyl]-->[prod_2]-->[allyloxy],
[npropyl]-->[frag_1],
[npropyl]-->[frag_1]-->[vinoxy]-->[CO],
[npropyl]-->[prod_1]-->[frag_1]-->[vinoxy]-->[CH2O]-->[CH3OOH]-->[CH3O],
[npropyl]-->[prod_1]-->[frag_1]-->[vinoxy]-->[CH2O]-->[CH3CH2OOH]-->[ethoxy],
[npropyl]-->[prod_1]-->[frag_1]-->[vinoxy]-->[CH2O]-->[ipropylooh]-->[ipropyloxy],
[npropyl]-->[prod_1]-->[frag_1]-->[vinoxy]-->[CH2O]-->[npropylooh]-->[npropyloxy],
[npropyl]-->[prod_1]-->[frag_1]-->[CH2O]-->[CH3CH2OOH]-->[ethoxy]-->[CH3]-->[CH3OOH]-->[CH3O],
[npropyl]-->[C3H6]-->[QOOH_2]-->[propoxide],
[npropyl]-->[prod_1]-->[frag_1]-->[CH2O]-->[ipropylooh]-->[ipropyloxy]-->[CH3]-->[CH3OOH]-->[CH3O],
[npropyl]-->[C3H6]-->[allyl]-->[allyloxy],
[npropyl]-->[prod_2]-->[allyloxy]-->[acrolein]-->[CH2CHCO]-->[vinoxy]-->[CO],
[npropyl]-->[prod_1]-->[frag_1]-->[vinoxy]-->[CH2O]-->[CH3CH2OOH]-->[ethoxy]-->[CH3]-->[CH3OOH]-->[CH3O],
[npropyl]-->[prod_1]-->[frag_1]-->[CH2O]-->[formylooh]-->[formyloxy],
[npropyl]-->[prod_3],
[npropyl]-->[prod_3]-->[frag_3],
[npropyl]-->[prod_3]-->[frag_3]-->[prod_3]-->[frag_3],
[npropyl]-->[prod_1]-->[frag_1]-->[vinoxy]-->[CH2O]-->[ipropylooh]-->[ipropyloxy]-->[CH3]-->[CH3OOH]-->[CH3O],
[npropyl]-->[prod_3]-->[frag_3]-->[prod_3]-->[frag_3]-->[prod_3]-->[frag_3],
[npropyl]-->[prod_1]-->[frag_1]-->[CH2O]-->[npropylooh]-->[npropyloxy]-->[C2H5]-->[CH3CH2OOH]-->[ethoxy],
[npropyl]-->[ipropyl]-->[C3H6]-->[propen1ol],
[npropyl]-->[npropylooh]-->[npropyloxy]-->[C2H5]-->[CH3CH2OOH]-->[ethoxy],
[npropyl]-->[QOOH_2]-->[well_3]-->[propoxide],
[npropyl]-->[ipropyl]-->[ipropylooh]-->[ipropyloxy],
[npropyl]-->[prod_1]-->[frag_1]-->[CH2O]-->[CH3CO3H]-->[acetyloxy],
[npropyl]-->[ipropyl]-->[C3H6]-->[propoxide],
[npropyl]-->[prod_1]-->[frag_1]-->[vinoxy]-->[CH2O]-->[formylooh]-->[formyloxy],
[npropyl]-->[C3H6]-->[npropyl]-->[prod_1],
[npropyl]-->[C3H6]-->[npropyl]-->[prod_1]-->[frag_1],
[npropyl]-->[prod_1]-->[frag_1]-->[CH2O]-->[HCO]-->[formylperoxy]-->[formylooh]-->[formyloxy],
[npropyl]-->[ipropyl]-->[C3H6]-->[allyl]-->[prod_2]-->[allyloxy],
[npropyl]-->[prod_2]-->[allyloxy]-->[acrolein]-->[CH3OOH]-->[CH3O],
[npropyl]-->[C3H6]-->[npropyl]-->[prod_1]-->[frag_1]-->[vinoxy]-->[CO],
[npropyl]-->[prod_1]-->[frag_1]-->[vinoxy]-->[CH2O]-->[npropylooh]-->[npropyloxy]-->[C2H5]-->[CH3CH2OOH]-->[ethoxy],
[npropyl]-->[C3H6]-->[ipropyl]-->[ipropylooh]-->[ipropyloxy],
[npropyl]-->[prod_1]-->[frag_1]-->[CH2O]-->[ipropylooh]-->[ipropyloxy]-->[acetaldehyde]-->[acetyl]-->[CH3]-->[CH3OOH]-->[CH3O],
[npropyl]-->[npropylooh]-->[npropyloxy]-->[C2H5]-->[npropyl]-->[prod_1],
[npropyl]-->[npropylooh]-->[npropyloxy]-->[C2H5]-->[npropyl]-->[prod_1]-->[frag_1],
[npropyl]-->[npropylooh]-->[npropyloxy]-->[C2H5]-->[npropyl]-->[prod_1]-->[frag_1]-->[vinoxy]-->[CO],
[npropyl]-->[C3H6]-->[QOOH_3]-->[propoxide],
[npropyl]-->[prod_1]-->[frag_1]-->[CH2O]-->[npropylooh]-->[npropyloxy]-->[C2H5]-->[CH3CH2OOH]-->[ethoxy]-->[CH3]-->[CH3OOH]-->[CH3O],
[npropyl]-->[prod_1]-->[frag_1]-->[vinoxy]-->[CH2O]-->[CH3CO3H]-->[acetyloxy],
[npropyl]-->[npropylooh]-->[npropyloxy]-->[CH2O]-->[CH3OOH]-->[CH3O],
[npropyl]-->[C3H6]-->[allyl]-->[ipropyloxy]-->[CH3]-->[CH3OOH]-->[CH3O],
[npropyl]-->[prod_1]-->[frag_1]-->[vinoxy]-->[CH2O]-->[HCO]-->[formylperoxy]-->[formylooh]-->[formyloxy],
[npropyl]-->[prod_2]-->[allyloxy]-->[acrolein]-->[CH2CHCO]-->[C2H3]-->[vinoxy]-->[CO],
[npropyl]-->[ipropyl]-->[C3H6]-->[QOOH_2]-->[propoxide],
[npropyl]-->[npropylooh]-->[npropyloxy]-->[CH2O]-->[CH3CH2OOH]-->[ethoxy],
[npropyl]-->[npropylooh]-->[npropyloxy]-->[CH2O]-->[ipropylooh]-->[ipropyloxy],
[npropyl]-->[npropylooh]-->[npropyloxy]-->[CH2O]-->[npropylooh]-->[npropyloxy],
[ipropyl]-->[C3H6]-->[propen1ol],
[ipropyl]-->[ipropylooh]-->[ipropyloxy],
[ipropyl]-->[C3H6]-->[propoxide],
[ipropyl]-->[C3H6]-->[allyl]-->[prod_2]-->[allyloxy],
[ipropyl]-->[C3H6]-->[QOOH_2]-->[propoxide],
[ipropyl]-->[C3H6]-->[allyl]-->[allyloxy],
[ipropyl]-->[npropyl]-->[prod_1],
[ipropyl]-->[npropyl]-->[prod_1]-->[frag_1],
[ipropyl]-->[npropyl]-->[prod_1]-->[frag_1]-->[vinoxy]-->[CO],
[ipropyl]-->[QOOH_3]-->[propoxide],
[ipropyl]-->[propoxide],
[ipropyl]-->[ipropylooh]-->[ipropyloxy]-->[CH3]-->[CH3OOH]-->[CH3O],
[ipropyl]-->[C3H6]-->[npropyl]-->[prod_1],
[ipropyl]-->[C3H6]-->[npropyl]-->[prod_1]-->[frag_1],
[ipropyl]-->[C3H6]-->[npropyl]-->[prod_1]-->[frag_1]-->[vinoxy]-->[CO],
[ipropyl]-->[C3H6]-->[ipropyl]-->[ipropylooh]-->[ipropyloxy],
[ipropyl]-->[ipropylooh]-->[ipropyloxy]-->[acetaldehyde]-->[acetyl]-->[CH3]-->[CH3OOH]-->[CH3O],
[ipropyl]-->[ipropylooh]-->[ipropyloxy]-->[CH3]-->[npropyl]-->[prod_1],
[ipropyl]-->[ipropylooh]-->[ipropyloxy]-->[CH3]-->[npropyl]-->[prod_1]-->[frag_1],
[ipropyl]-->[ipropylooh]-->[ipropyloxy]-->[CH3]-->[npropyl]-->[prod_1]-->[frag_1]-->[vinoxy]-->[CO],
[ipropyl]-->[C3H6]-->[QOOH_3]-->[propoxide],
[ipropyl]-->[C3H6]-->[allyl]-->[ipropyloxy]-->[CH3]-->[CH3OOH]-->[CH3O],
[ipropyl]-->[ipropylooh]-->[ipropyloxy]-->[acetaldehyde]-->[vinoxy]-->[CO],
[ipropyl]-->[C3H6]-->[npropyl]-->[npropylooh]-->[npropyloxy],
[ipropyl]-->[C3H6]-->[allyl]-->[prod_2]-->[allyloxy]-->[acrolein]-->[CH2CHCO]-->[vinoxy]-->[CO],
[ipropyl]-->[ipropylooh]-->[ipropyloxy]-->[acetaldehyde]-->[CH3OOH]-->[CH3O],
[ipropyl]-->[C3H6]-->[npropyl]-->[propoxide],
[ipropyl]-->[C3H6]-->[propen2yl]-->[acetyl]-->[CH3]-->[CH3OOH]-->[CH3O],
[ipropyl]-->[C3H6]-->[ipropyl]-->[C3H6]-->[propen1ol],
[ipropyl]-->[C3H6]-->[allyl]-->[npropyloxy]-->[C2H5]-->[CH3CH2OOH]-->[ethoxy],
[ipropyl]-->[C3H6]-->[npropylooh]-->[npropyloxy],
[ipropyl]-->[C3H6]-->[CH3OOH]-->[CH3O],
[ipropyl]-->[C3H6]-->[ipropyl]-->[ipropylooh]-->[ipropyloxy]-->[CH3]-->[CH3OOH]-->[CH3O],
[ipropyl]-->[C3H6]-->[ipropylooh]-->[ipropyloxy],
[ipropyl]-->[ipropylooh]-->[ipropyloxy]-->[acetaldehyde]-->[acetyl]-->[CH3CO3H]-->[acetyloxy],
[ipropyl]-->[C3H6]-->[allyl]-->[allyloxy]-->[acrolein]-->[CH2CHCO]-->[vinoxy]-->[CO],
[ipropyl]-->[C3H6]-->[ipropyl]-->[C3H6]-->[propoxide],
[ipropyl]-->[C3H6]-->[CH3CH2OOH]-->[ethoxy],
[ipropyl]-->[ipropylooh]-->[ipropyloxy]-->[CH3]-->[ipropyl]-->[C3H6]-->[propen1ol],
[ipropyl]-->[npropyl]-->[propoxide],
[ipropyl]-->[QOOH_3]-->[well_2]-->[propoxide],
[ipropyl]-->[C3H6]-->[ipropyl]-->[C3H6]-->[allyl]-->[prod_2]-->[allyloxy],
[ipropyl]-->[C3H6]-->[CH3]-->[CH3OOH]-->[CH3O],
[ipropyl]-->[C3H6]-->[propen2yl]-->[acetyl]-->[CH3CO3H]-->[acetyloxy],
[ipropyl]-->[C3H6]-->[allyl]-->[prod_2]-->[allyloxy]-->[acrolein]-->[CH3OOH]-->[CH3O],
[ipropyl]-->[ipropylooh]-->[ipropyloxy]-->[acetaldehyde]-->[ipropylooh]-->[ipropyloxy],
[ipropyl]-->[ipropylooh]-->[ipropyloxy]-->[acetaldehyde]-->[npropylooh]-->[npropyloxy],
[ipropyl]-->[ipropylooh]-->[ipropyloxy]-->[CH3]-->[ipropyl]-->[ipropylooh]-->[ipropyloxy],
[ipropyl]-->[C3H6]-->[npropyl]-->[QOOH_2]-->[propoxide],
[ipropyl]-->[C3H6]-->[propen1ol]-->[C2H3]-->[vinoxy]-->[CO],
[ipropyl]-->[npropyl]-->[QOOH_2]-->[propoxide],
[ipropyl]-->[C3H6]-->[allyl]-->[npropyloxy]-->[C2H5]-->[CH3CH2OOH]-->[ethoxy]-->[CH3]-->[CH3OOH]-->[CH3O],
[ipropyl]-->[ipropylooh]-->[ipropyloxy]-->[CH3]-->[ipropyl]-->[C3H6]-->[propoxide],
[ipropyl]-->[npropyl]-->[prod_2]-->[allyloxy],
[ipropyl]-->[C3H6]-->[npropyl]-->[prod_2]-->[allyloxy],
[ipropyl]-->[C3H6]-->[ipropyl]-->[ipropyloxy]-->[CH3]-->[CH3OOH]-->[CH3O],
