{
    "He": {
        "HE": 1.0
    },
    "Ar": {
        "AR": 1.0
    },
    "N": {
        "N2": 2.0
    },
    "H": {
        "H": 1.0,
        "H2": 2.0,
        "HEG": 1.0,
        "HCFG": 1.0,
        "Halt": 1.0,
        "OH": 1.0,
        "H2O": 2.0,
        "HO2": 1.0,
        "H2O2": 2.0,
        "HCO": 1.0,
        "CH2O": 2.0,
        "formyloxy": 1.0,
        "formylperoxy": 1.0,
        "formylooh": 2.0,
        "CH": 1.0,
        "CH2(S)": 2.0,
        "CH2": 2.0,
        "CH3": 3.0,
        "CH4": 4.0,
        "CH3OO": 3.0,
        "CH3OOH": 4.0,
        "CH2OH": 3.0,
        "CH3O": 3.0,
        "CH3OH": 4.0,
        "OCH2OOH": 3.0,
        "HOCH2OO": 3.0,
        "HOCH2OOH": 4.0,
        "HOCH2O": 3.0,
        "C2H2": 2.0,
        "C2H3": 3.0,
        "C2H4": 4.0,
        "C2H5": 5.0,
        "C2H6": 6.0,
        "ketene": 2.0,
        "HCCO": 1.0,
        "ethynol": 2.0,
        "acetaldehyde": 4.0,
        "acetyl": 3.0,
        "vinoxy": 3.0,
        "acetylperoxy": 3.0,
        "acetyloxy": 3.0,
        "ethoxy": 5.0,
        "CH3CH2OO": 5.0,
        "CH3CH2OOH": 6.0,
        "CH2CH2OOH": 5.0,
        "ethanol": 6.0,
        "CH2CH2OH": 5.0,
        "CH3CHOH": 5.0,
        "oxirane": 4.0,
        "oxiranyl": 3.0,
        "ethenol": 4.0,
        "C3H6": 6.0,
        "npropyl": 7.0,
        "ipropyl": 7.0,
        "C3H8": 8.0,
        "allyl": 5.0,
        "propen1yl": 5.0,
        "propen2yl": 5.0,
        "acetone": 6.0,
        "CH3OCH3": 6.0,
        "CH3OCH2": 5.0,
        "acrolein": 4.0,
        "CH2CHCO": 3.0,
        "CH3CHCO": 4.0,
        "allyloxy": 5.0,
        "allyl-alcohol": 6.0,
        "propanal": 6.0,
        "propionyl": 5.0,
        "npropyloxy": 7.0,
        "ipropyloxy": 7.0,
        "npropyloo": 7.0,
        "npropylooh": 8.0,
        "ipropyloo": 7.0,
        "ipropylooh": 8.0,
        "propen1ol": 6.0,
        "propen2ol": 6.0,
        "CH3CO3H": 4.0,
        "O2C2H4OH": 5.0,
        "propoxide": 6.0,
        "QOOH_1": 7.0,
        "QOOH_2": 7.0,
        "QOOH_3": 7.0,
        "well_1": 7.0,
        "well_2": 7.0,
        "well_3": 7.0,
        "well_5": 7.0,
        "prod_1": 6.0,
        "prod_2": 6.0,
        "prod_3": 6.0,
        "prod_4": 6.0,
        "prod_5": 6.0,
        "prod_6": 6.0,
        "prod_7": 6.0,
        "frag_1": 5.0,
        "frag_3": 5.0,
        "frag_4": 5.0,
        "frag_5": 5.0,
        "propen1oxy": 5.0,
        "propen2oxy": 5.0,
        "glyoxal": 2.0,
        "vinoxylmethyl": 5.0,
        "formylethyl": 5.0,
        "npropanol": 8.0,
        "ipropanol": 8.0
    },
    "O": {
        "O": 1.0,
        "O2": 2.0,
        "OH": 1.0,
        "H2O": 1.0,
        "HO2": 2.0,
        "H2O2": 2.0,
        "CO": 1.0,
        "CO2": 2.0,
        "HCO": 1.0,
        "CH2O": 1.0,
        "formyloxy": 2.0,
        "formylperoxy": 3.0,
        "formylooh": 3.0,
        "CH3OO": 2.0,
        "CH3OOH": 2.0,
        "CH2OH": 1.0,
        "CH3O": 1.0,
        "CH3OH": 1.0,
        "OCH2OOH": 3.0,
        "HOCH2OO": 3.0,
        "HOCH2OOH": 3.0,
        "HOCH2O": 2.0,
        "ketene": 1.0,
        "HCCO": 1.0,
        "ethynol": 1.0,
        "acetaldehyde": 1.0,
        "acetyl": 1.0,
        "vinoxy": 1.0,
        "acetylperoxy": 3.0,
        "acetyloxy": 2.0,
        "ethoxy": 1.0,
        "CH3CH2OO": 2.0,
        "CH3CH2OOH": 2.0,
        "CH2CH2OOH": 2.0,
        "ethanol": 1.0,
        "CH2CH2OH": 1.0,
        "CH3CHOH": 1.0,
        "oxirane": 1.0,
        "oxiranyl": 1.0,
        "ethenol": 1.0,
        "acetone": 1.0,
        "CH3OCH3": 1.0,
        "CH3OCH2": 1.0,
        "acrolein": 1.0,
        "CH2CHCO": 1.0,
        "CH3CHCO": 1.0,
        "allyloxy": 1.0,
        "allyl-alcohol": 1.0,
        "propanal": 1.0,
        "propionyl": 1.0,
        "npropyloxy": 1.0,
        "ipropyloxy": 1.0,
        "npropyloo": 2.0,
        "npropylooh": 2.0,
        "ipropyloo": 2.0,
        "ipropylooh": 2.0,
        "propen1ol": 1.0,
        "propen2ol": 1.0,
        "CH3CO3H": 3.0,
        "O2C2H4OH": 3.0,
        "propoxide": 1.0,
        "QOOH_1": 2.0,
        "QOOH_2": 2.0,
        "QOOH_3": 2.0,
        "well_1": 4.0,
        "well_2": 4.0,
        "well_3": 4.0,
        "well_5": 4.0,
        "prod_1": 3.0,
        "prod_2": 2.0,
        "prod_3": 3.0,
        "prod_4": 3.0,
        "prod_5": 3.0,
        "prod_6": 2.0,
        "prod_7": 2.0,
        "frag_1": 2.0,
        "frag_3": 2.0,
        "frag_4": 2.0,
        "frag_5": 2.0,
        "propen1oxy": 1.0,
        "propen2oxy": 1.0,
        "glyoxal": 2.0,
        "vinoxylmethyl": 1.0,
        "formylethyl": 1.0,
        "npropanol": 1.0,
        "ipropanol": 1.0
    },
    "C": {
        "CO": 1.0,
        "CO2": 1.0,
        "HCO": 1.0,
        "CH2O": 1.0,
        "formyloxy": 1.0,
        "formylperoxy": 1.0,
        "formylooh": 1.0,
        "C": 1.0,
        "CH": 1.0,
        "CH2(S)": 1.0,
        "CH2": 1.0,
        "CH3": 1.0,
        "CH4": 1.0,
        "CH3OO": 1.0,
        "CH3OOH": 1.0,
        "CH2OH": 1.0,
        "CH3O": 1.0,
        "CH3OH": 1.0,
        "OCH2OOH": 1.0,
        "HOCH2OO": 1.0,
        "HOCH2OOH": 1.0,
        "HOCH2O": 1.0,
        "C2H2": 2.0,
        "C2H3": 2.0,
        "C2H4": 2.0,
        "C2H5": 2.0,
        "C2H6": 2.0,
        "ketene": 2.0,
        "HCCO": 2.0,
        "ethynol": 2.0,
        "acetaldehyde": 2.0,
        "acetyl": 2.0,
        "vinoxy": 2.0,
        "acetylperoxy": 2.0,
        "acetyloxy": 2.0,
        "ethoxy": 2.0,
        "CH3CH2OO": 2.0,
        "CH3CH2OOH": 2.0,
        "CH2CH2OOH": 2.0,
        "ethanol": 2.0,
        "CH2CH2OH": 2.0,
        "CH3CHOH": 2.0,
        "oxirane": 2.0,
        "oxiranyl": 2.0,
        "ethenol": 2.0,
        "C3H6": 3.0,
        "npropyl": 3.0,
        "ipropyl": 3.0,
        "C3H8": 3.0,
        "allyl": 3.0,
        "propen1yl": 3.0,
        "propen2yl": 3.0,
        "acetone": 3.0,
        "CH3OCH3": 2.0,
        "CH3OCH2": 2.0,
        "acrolein": 3.0,
        "CH2CHCO": 3.0,
        "CH3CHCO": 3.0,
        "allyloxy": 3.0,
        "allyl-alcohol": 3.0,
        "propanal": 3.0,
        "propionyl": 3.0,
        "npropyloxy": 3.0,
        "ipropyloxy": 3.0,
        "npropyloo": 3.0,
        "npropylooh": 3.0,
        "ipropyloo": 3.0,
        "ipropylooh": 3.0,
        "propen1ol": 3.0,
        "propen2ol": 3.0,
        "CH3CO3H": 2.0,
        "O2C2H4OH": 2.0,
        "propoxide": 3.0,
        "QOOH_1": 3.0,
        "QOOH_2": 3.0,
        "QOOH_3": 3.0,
        "well_1": 3.0,
        "well_2": 3.0,
        "well_3": 3.0,
        "well_5": 3.0,
        "prod_1": 3.0,
        "prod_2": 3.0,
        "prod_3": 3.0,
        "prod_4": 3.0,
        "prod_5": 3.0,
        "prod_6": 3.0,
        "prod_7": 3.0,
        "frag_1": 3.0,
        "frag_3": 3.0,
        "frag_4": 3.0,
        "frag_5": 3.0,
        "propen1oxy": 3.0,
        "propen2oxy": 3.0,
        "glyoxal": 2.0,
        "vinoxylmethyl": 3.0,
        "formylethyl": 3.0,
        "npropanol": 3.0,
        "ipropanol": 3.0
    }
}