489,ipropyloo+ipropyloo=>O2+ipropyloxy+ipropyloxy
490,npropyloo+npropyloo=>O2+npropyloxy+npropyloxy
491,ipropyloo+npropyloo=>ipropyloxy+npropyloxy+O2
631,npropyloo+OH=>npropyloxy+HO2
632,ipropyloo+OH=>ipropyloxy+HO2
633,npropyloo+OH=>npropanol+O2
634,ipropyloo+OH=>ipropanol+O2
635,npropyloxy+HO2=>npropanol+O2
636,ipropyloxy+HO2=>ipropanol+O2
637,npropyloo+npropyloo=>O2+npropanol+propanal
