[npropyl]-->[prod_1],
[npropyl]-->[prod_1]-->[frag_1],
[npropyl]-->[prod_1]-->[frag_1]-->[vinoxy]-->[CH2O],
[npropyl]-->[npropylooh]-->[npropyloxy],
[npropyl]-->[npropylooh]-->[npropyloxy]-->[C2H5]-->[CH3CH2OOH]-->[ethoxy],
[ipropyl]-->[ipropylooh]-->[ipropyloxy],
[ipropyl]-->[npropyl]-->[prod_1],
[ipropyl]-->[npropyl]-->[prod_1]-->[frag_1],
[ipropyl]-->[npropyl]-->[prod_1]-->[frag_1]-->[vinoxy]-->[CO],
[ipropyl]-->[ipropylooh]-->[ipropyloxy]-->[CH3]-->[CH3OOH]-->[CH3O],
[ipropyl]-->[ipropylooh]-->[ipropyloxy]-->[CH3]-->[npropyl]-->[prod_1],
[ipropyl]-->[ipropylooh]-->[ipropyloxy]-->[CH3]-->[npropyl]-->[prod_1]-->[frag_1],
[ipropyl]-->[ipropylooh]-->[ipropyloxy]-->[CH3]-->[npropyl]-->[prod_1]-->[frag_1]-->[vinoxy]-->[CO],
[ipropyl]-->[propoxide],
[ipropyl]-->[QOOH_3]-->[propoxide],
