id,modularity class 2,weight2
Z6,0,49.741240873604845
HOCH2O,2,24.85721920825151
CH2O,5,24.943100440241878
CH,5,15.0
prod_3,4,24.91198194682188
C2H6,0,24.890399744759684
glyoxal,4,24.863369289836193
CH3OOH,0,24.92939220023179
ethoxy,0,24.857576235038408
propen1ol,0,24.89660320951976
CH2CH2OOH,0,24.85044831758617
CH2CHCO,5,24.841597184865318
prod_2,0,24.924772908110054
C2H4,0,24.927083141537597
propen2ol,1,24.864417784216315
propoxide,1,24.92713781389663
CH3CH2OOH,0,24.924945525508285
propen1oxy,4,24.89769984761926
formylethyl,0,24.877016167926726
Z4,1,99.62449114644713
CH3CHCO,1,24.861384415141643
ketene,5,24.904035173583424
Z1,0,49.810760209240414
HOCH2OOH,2,24.864322371564004
Z2,3,49.80452635533418
well_5,4,24.850000246099086
allyl,0,24.886958868439006
CH3OCH3,0,24.84295449224159
CO,5,24.939840243622122
acetaldehyde,0,24.931156243863107
C2H3,0,24.845208641229313
iRO,1,24.85689231146325
OCH2OOH,2,24.810499451521355
prod_5,4,24.89778242197362
nROOH,3,24.928176346115244
ethenol,1,24.876457387523487
OQ'O1,5,24.844709337014667
formylooh,1,24.892718475731996
ethynol,5,24.798578206123082
prod_4,4,24.90468514201543
formyloxy,5,24.86802143552744
CH2OH,2,24.821843189223166
propen2yl,5,24.83926586309199
CH3OH,0,24.90370466309512
C2H2,5,24.89203221290096
acetyloxy,0,24.823684484400616
C,5,24.66920662885264
HCO,0,24.850891427921226
frag_5,4,24.77709303699954
HOCH2OO,2,24.869013994448615
prod_6,4,24.81244960095679
CH2(S),5,15.0
ethanol,0,24.849604714144732
Z8,4,49.751811769952326
CH3OCH2,0,24.795203420243098
prod_7,4,24.828231623623026
C3H6,1,24.944715797036018
nRO,3,24.855694072072637
acetone,0,24.911609745275584
CO2,5,24.89291270124021
RH,1,24.98724602190866
oxirane,0,24.905481858627688
Z3,0,49.74838590732932
CH4,0,24.901949195614073
propanal,0,24.901360448815687
acrolein,0,24.919973442525517
frag_4,4,24.79763776008867
allyl-alcohol,1,24.861632064717334
oxiranyl,0,15.0
Z9,4,49.75016210792379
Z5,1,49.822211841000495
vinoxy,5,24.881769546421282
OQ'OOH1,5,24.938541062356062
frag_3,4,24.910316968403976
formylperoxy,1,24.89309701866488
Z7,0,49.68412216313487
propionyl,0,24.799257478667155
CH3O,0,24.877451500415937
CH2,5,15.0
CH3CO3H,0,24.894568592322436
HCCO,5,24.819265112730086
propen2oxy,0,24.884532175813554
propen1yl,5,24.839484972421793
iROOH,1,24.93118109193764
CH3CHOH,0,24.794761875645854
